{
  "prepare_queue": {
    "installed": [],
    "uninstalled": []
  },
  "config_munge": {
    "files": {}
  },
  "installed_plugins": {
    "cordova-plugin-device": {
      "PACKAGE_NAME": "com.phonegap.helloworld"
    },
    "cordova-plugin-inappbrowser": {
      "PACKAGE_NAME": "com.phonegap.helloworld"
    },
    "cordova-plugin-network-information": {
      "PACKAGE_NAME": "com.phonegap.helloworld"
    },
    "cordova-plugin-whitelist": {
      "PACKAGE_NAME": "com.phonegap.helloworld"
    },
    "cordova-plugin-file": {
      "PACKAGE_NAME": "com.phonegap.helloworld"
    }
  },
  "dependent_plugins": {}
}